8 英文文本分析 | 2020级创新班R课程内容总集（修改版）
…
建立行号、章节号

library(stringr)

original_books <- austen_books() %>%
  # %>%是管道函数，可将前一步的结果直接传参给下一步函数
  group_by(book) %>%
  mutate(linenumber = row_number(),
         chapter = cumsum(str_detect(text,
                                     regex("^chapter [\\divxlc]",
                                           ignore_case = TRUE)))) %>% #建立行号、章节号 
  ungroup()
original_books

## # A tibble: 73,422 × 4
##    text                    book                linenumber chapter
##    <chr>                   <fct>                    <int>   <int>
##  1 "SENSE AND SENSIBILITY" Sense & Sensibility          1       0
##  2 ""                      Sense & Sensibility          2       0
##  3 "by Jane Austen"        Sense & Sensibility          3       0
##  4 ""                      Sense & Sensibility          4       0
##  5 "(1811)"                Sense & Sensibility          5       0
##  6 ""                      Sense & Sensibility          6       0
##  7 ""                      Sense & Sensibility          7       0
##  8 ""                      Sense & Sensibility          8       0
##  9 ""                      Sense & Sensibility          9       0
## 10 "CHAPTER 1"             Sense & Sensibility         10       1
## # ℹ 73,412 more rows

用unnest_tokens函数分词（每行一词）

library(tidytext)
tidy_books <- original_books %>%
  unnest_tokens(word, text) #分词
tidy_books

## # A tibble: 725,055 × 4
##    book                linenumber chapter word       
##    <fct>                    <int>   <int> <chr>      
##  1 Sense & Sensibility          1       0 sense      
##  2 Sense & Sensibility          1       0 and        
##  3 Sense & Sensibility          1       0 sensibility
##  4 Sense & Sensibility          3       0 by         
##  5 Sense & Sensibility          3       0 jane       
##  6 Sense & Sensibility          3       0 austen     
##  7 Sense & Sensibility          5       0 1811       
##  8 Sense & Sensibility         10       1 chapter    
##  9 Sense & Sensibility         10       1 1          
## 10 Sense & Sensibility         13       1 the        
## # ℹ 725,045 more rows
…
data(stop_words)

tidy_books <- tidy_books %>%
  anti_join(stop_words) 

## Joining with `by = join_by(word)`

8.2 词频count

统计词频（查找书中最常用的词汇）

tidy_books %>%
  count(word, sort = TRUE)

## # A tibble: 13,914 × 2
##    word       n
##    <chr>  <int>
##  1 miss    1855
##  2 time    1337
##  3 fanny    862
##  4 dear     822
##  5 lady     817
##  6 sir      806
##  7 day      797
##  8 emma     787
##  9 sister   727
## 10 house    699
## # ℹ 13,904 more rows
…
## Joining with `by = join_by(word)`

## Warning in inner_join(., get_sentiments("bing")): Detected an unexpected many-to-many relationship between `x` and `y`.
## ℹ Row 131015 of `x` matches multiple rows in `y`.
## ℹ Row 5051 of `y` matches multiple rows in `x`.
## ℹ If a many-to-many relationship is expected, set `relationship =
##   "many-to-many"` to silence this warning.

bing_word_counts

## # A tibble: 2,555 × 3
##    word      sentiment     n
##    <chr>     <chr>     <int>
##  1 miss      negative   1855
##  2 happy     positive    534
##  3 love      positive    495
##  4 pleasure  positive    462
##  5 poor      negative    424
##  6 happiness positive    369
##  7 comfort   positive    292
##  8 doubt     negative    281
##  9 affection positive    272
## 10 perfectly positive    271
## # ℹ 2,545 more rows
…
book_words <- austen_books() %>%
  unnest_tokens(word, text) %>%
  count(book, word, sort = TRUE)

total_words <- book_words %>% 
  group_by(book) %>% 
  summarize(total = sum(n))

book_words <- left_join(book_words, total_words)

## Joining with `by = join_by(book)`

book_words

## # A tibble: 40,379 × 4
##    book              word      n  total
##    <fct>             <chr> <int>  <int>
##  1 Mansfield Park    the    6206 160460
##  2 Mansfield Park    to     5475 160460
##  3 Mansfield Park    and    5438 160460
##  4 Emma              to     5239 160996
##  5 Emma              the    5201 160996
##  6 Emma              and    4896 160996
##  7 Mansfield Park    of     4778 160460
##  8 Pride & Prejudice the    4331 122204
##  9 Emma              of     4291 160996
## 10 Pride & Prejudice to     4162 122204
## # ℹ 40,369 more rows
…
8.4.2 Zipf’s law

freq_by_rank <- book_words %>% 
  group_by(book) %>% 
  mutate(rank = row_number(), 
         `term frequency` = n/total) %>%
  ungroup()

freq_by_rank

## # A tibble: 40,379 × 6
##    book              word      n  total  rank `term frequency`
##    <fct>             <chr> <int>  <int> <int>            <dbl>
##  1 Mansfield Park    the    6206 160460     1           0.0387
##  2 Mansfield Park    to     5475 160460     2           0.0341
##  3 Mansfield Park    and    5438 160460     3           0.0339
##  4 Emma              to     5239 160996     1           0.0325
##  5 Emma              the    5201 160996     2           0.0323
##  6 Emma              and    4896 160996     3           0.0304
##  7 Mansfield Park    of     4778 160460     4           0.0298
##  8 Pride & Prejudice the    4331 122204     1           0.0354
##  9 Emma              of     4291 160996     4           0.0267
## 10 Pride & Prejudice to     4162 122204     2           0.0341
## # ℹ 40,369 more rows
…
注：我们在简.奥斯汀的小说语料库中发现了一个与经典版齐普夫定律相近的结果。我们在这里看到的高级语言的偏差在许多语言中并不罕见；一个语言语料库通常包含的稀有词比单一幂律所预测的要少。低等级的偏差更不寻常。简.奥斯汀使用的最常用词的百分比低于许多语言集合。这种分析可以扩展到比较作者，或者比较任何其他文本集合，它可以简单地通过使用简洁的数据原则来实现。

8.4.3 bind_tf_idf ()函数

注：ti-idf的想法是通过减少常用词的权重，增加文档集合或语料中不常用的词的权重，来找到每个文档内容中的重要词。以下我们将从简.奥斯汀的小说集合入手，通过计算ti-idf来在文本中找到重要但不太常见的单词。

book_tf_idf <- book_words %>%
  bind_tf_idf(word, book, n)

book_tf_idf

## # A tibble: 40,379 × 7
##    book              word      n  total     tf   idf tf_idf
##    <fct>             <chr> <int>  <int>  <dbl> <dbl>  <dbl>
##  1 Mansfield Park    the    6206 160460 0.0387     0      0
##  2 Mansfield Park    to     5475 160460 0.0341     0      0
##  3 Mansfield Park    and    5438 160460 0.0339     0      0
##  4 Emma              to     5239 160996 0.0325     0      0
##  5 Emma              the    5201 160996 0.0323     0      0
##  6 Emma              and    4896 160996 0.0304     0      0
##  7 Mansfield Park    of     4778 160460 0.0298     0      0
##  8 Pride & Prejudice the    4331 122204 0.0354     0      0
##  9 Emma              of     4291 160996 0.0267     0      0
## 10 Pride & Prejudice to     4162 122204 0.0341     0      0
## # ℹ 40,369 more rows

以下我们来看看简.奥斯汀作品中的高tf-idf术语

book_tf_idf %>%
  select(-total) %>%
  arrange(desc(tf_idf))

## # A tibble: 40,379 × 6
##    book                word          n      tf   idf  tf_idf
##    <fct>               <chr>     <int>   <dbl> <dbl>   <dbl>
##  1 Sense & Sensibility elinor      623 0.00519  1.79 0.00931
##  2 Sense & Sensibility marianne    492 0.00410  1.79 0.00735
##  3 Mansfield Park      crawford    493 0.00307  1.79 0.00551
##  4 Pride & Prejudice   darcy       373 0.00305  1.79 0.00547
##  5 Persuasion          elliot      254 0.00304  1.79 0.00544
##  6 Emma                emma        786 0.00488  1.10 0.00536
##  7 Northanger Abbey    tilney      196 0.00252  1.79 0.00452
##  8 Emma                weston      389 0.00242  1.79 0.00433
##  9 Pride & Prejudice   bennet      294 0.00241  1.79 0.00431
## 10 Persuasion          wentworth   191 0.00228  1.79 0.00409
## # ℹ 40,369 more rows
…
## [1] "character"

class(metadata$dataset$keyword)

## [1] "list"

争论和整理数据（我们将为title、description和keyword分别设置整齐的数据框架，保留每个框架的数据集ID，以便我们可以在以后的分析中更具需要连接它们。）

library(dplyr)

nasa_title <- tibble(id = metadata$dataset$`_id`$`$oid`, 
                     title = metadata$dataset$title)
nasa_title

## # A tibble: 22,199 × 1
##    title                                                                        
##    <chr>                                                                        
##  1 "ROSETTA-ORBITER EARTH RPCMAG 2 EAR2 RAW V3.0"                               
##  2 "NEAR EROS RADIO SCIENCE DATA SET - EROS/ORBIT V1.0"                         
##  3 "NEW HORIZONS\n      LEISA KEM1\n      CALIBRATED V2.0"                      
##  4 "ROSETTA-ORBITER 67P RSI 1/2/3\n                                     COMET E…
##  5 "ASTEROID OCCULTATIONS V14.0"                                                
##  6 "NARSTO SHEMP Particulate Matter Composition Data, Canada, 2000-2002"        
##  7 "VOYAGER 2 JUPITER MAGNETOMETER RESAMPLED DATA 1.92 SEC"                     
##  8 "Fire Particulate Emissions from Combined VIIRS and AHI Data for Indonesia, …
##  9 "Sounder SIPS: Suomi NPP CrIMSS Level 3 Comprehensive Quality Control Gridde…
## 10 "CATS-ISS Level 2 Operational Night Mode 7.2 Version 3-00 5 km Profile"      
## # ℹ 22,189 more rows
…
现在我们可以为关键字构建整洁的数据框架，在本例中，我们将使用tidyr中的unnest()函数。

library(tidyr)

nasa_keyword <- tibble(id = metadata$dataset$`_id`$`$oid`, 
                       keyword = metadata$dataset$keyword) %>%
  unnest(keyword)

nasa_keyword

## # A tibble: 114,921 × 1
##    keyword                                  
##    <chr>                                    
##  1 unknown                                  
##  2 international rosetta mission            
##  3 earth                                    
##  4 near earth asteroid rendezvous           
##  5 eros                                     
##  6 vega                                     
##  7 new horizons kuiper belt extended mission
##  8 international rosetta mission            
##  9 67p/churyumov-gerasimenko 1 (1969 r1)    
## 10 satellite                                
## # ℹ 114,911 more rows
…
nasa_title <- nasa_title %>% 
  unnest_tokens(word, title) %>% 
  anti_join(stop_words)

## Joining with `by = join_by(word)`

nasa_desc <- nasa_desc %>% 
  unnest_tokens(word, desc) %>% 
  anti_join(stop_words)

## Joining with `by = join_by(word)`

nasa_title

## # A tibble: 202,793 × 1
##    word   
##    <chr>  
##  1 rosetta
##  2 orbiter
##  3 earth  
##  4 rpcmag 
##  5 2      
##  6 ear2   
##  7 raw    
##  8 v3.0   
##  9 eros   
## 10 radio  
## # ℹ 202,783 more rows

nasa_desc

## # A tibble: 1,588,410 × 1
##    word    
##    <chr>   
##  1 dataset 
##  2 edited  
##  3 raw     
##  4 data    
##  5 earth   
##  6 flyby   
##  7 ear2    
##  8 closest 
##  9 approach
## 10 ca      
## # ℹ 1,588,400 more rows

一些初步的简单勘探（NASA数据集标题中最常见的词是什么？我们可以使用dplyr中的count()来检查这一点。）

nasa_title %>%
  count(word, sort = TRUE)

## # A tibble: 12,466 × 2
##    word        n
##    <chr>   <int>
##  1 v1.0     6184
##  2 data     4553
##  3 2        4125
##  4 rosetta  4031
##  5 1        3945
##  6 orbiter  3887
##  7 3        3799
##  8 67p      2676
##  9 global   1731
## 10 ges      1723
## # ℹ 12,456 more rows

描述如何？

nasa_desc %>% 
  count(word, sort = TRUE)

## # A tibble: 35,698 × 2
##    word         n
##    <chr>    <int>
##  1 data     52781
##  2 set      13070
##  3 product  10582
##  4 2         9754
##  5 1         8559
##  6 version   8078
##  7 surface   7707
##  8 global    7514
##  9 level     7270
## 10 products  7081
## # ℹ 35,688 more rows
…
## Joining with `by = join_by(word)`

nasa_desc <- nasa_desc %>% 
  anti_join(my_stopwords)

## Joining with `by = join_by(word)`

最常见的关键词是什么？

nasa_keyword %>% 
  group_by(keyword) %>% 
  count(sort = TRUE)

## # A tibble: 9,103 × 2
## # Groups:   keyword [9,103]
##    keyword                                   n
##    <chr>                                 <int>
##  1 earth science                          9727
##  2 atmosphere                             4181
##  3 international rosetta mission          3806
##  4 67p/churyumov-gerasimenko 1 (1969 r1)  2977
##  5 land surface                           2234
##  6 oceans                                 1901
##  7 spectral/engineering                   1562
##  8 biosphere                              1410
##  9 atmospheric water vapor                1344
## 10 mars                                   1321
## # ℹ 9,093 more rows
…
