5 简单线性回归 {#Simple OLS} | 2020级创新班R课程内容总集（修改版）
…
# predict(mod1) # predictions at original x values
core %>% modelr::add_predictions(mod1)

## # A tibble: 7,179 × 9
##    gender   age agegroup height weight educ     marriage   income  pred
##    <fct>  <dbl> <fct>     <dbl>  <dbl> <fct>    <fct>       <dbl> <dbl>
##  1 女        54 45~60岁     160    118 中等教育 离婚        96000  118.
##  2 女        76 60岁以上    160    120 中等教育 初婚有配偶  60000  118.
##  3 男        72 60岁以上    172    156 高等教育 初婚有配偶  96000  137.
##  4 男        35 30~45岁     172    130 高等教育 初婚有配偶 160000  137.
##  5 女        63 60岁以上    158    115 中等教育 初婚有配偶  48000  115.
##  6 男        25 30岁以下    180    150 高等教育 未婚       600000  150.
##  7 女        38 30~45岁     160     90 高等教育 初婚有配偶 400000  118.
##  8 男        76 60岁以上    164    100 中等教育 同居        78000  125.
##  9 男        34 30~45岁     187    198 高等教育 初婚有配偶 100000  160.
## 10 男        30 30岁以下    165    120 高等教育 未婚       200000  126.
## # ℹ 7,169 more rows

# resid(mod1)
core %>%
  modelr::add_predictions(mod1) %>%
  modelr::add_residuals(mod1)

## # A tibble: 7,179 × 10
##    gender   age agegroup height weight educ     marriage   income  pred   resid
##    <fct>  <dbl> <fct>     <dbl>  <dbl> <fct>    <fct>       <dbl> <dbl>   <dbl>
##  1 女        54 45~60岁     160    118 中等教育 离婚        96000  118.  -0.445
##  2 女        76 60岁以上    160    120 中等教育 初婚有配偶  60000  118.   1.56 
##  3 男        72 60岁以上    172    156 高等教育 初婚有配偶  96000  137.  18.9  
##  4 男        35 30~45岁     172    130 高等教育 初婚有配偶 160000  137.  -7.14 
##  5 女        63 60岁以上    158    115 中等教育 初婚有配偶  48000  115.  -0.329
##  6 男        25 30岁以下    180    150 高等教育 未婚       600000  150.   0.403
##  7 女        38 30~45岁     160     90 高等教育 初婚有配偶 400000  118. -28.4  
##  8 男        76 60岁以上    164    100 中等教育 同居        78000  125. -24.7  
##  9 男        34 30~45岁     187    198 高等教育 初婚有配偶 100000  160.  37.5  
## 10 男        30 30岁以下    165    120 高等教育 未婚       200000  126.  -6.23 
## # ℹ 7,169 more rows
…
